[
  {
    "objectID": "index.html",
    "href": "index.html",
    "title": "Vergessene Zusammenhänge",
    "section": "",
    "text": "Das lektüreintensive Seminar nimmt Klaus Mollenhauers “Vergessene Zusammenhänge: Über Kultur und Erziehung” (1983) zum Ausgangspunkt, um einen alternativen Zugang zu den Grundfragen der Erziehung zu erkunden. Über sozialtheoretische Ansätze und personenzentrierte Ideen hinaus werden dabei kulturelle Überlieferungen wie Bilder, Mosaike oder Berichte von Zeitzeugen zu wichtigen Orientierungspunkten auf dem Weg zu einem vertieften Verständnis der Erziehungsfrage."
  },
  {
    "objectID": "index.html#termine",
    "href": "index.html#termine",
    "title": "Vergessene Zusammenhänge",
    "section": "Termine",
    "text": "Termine\n\nEinführung"
  },
  {
    "objectID": "00-intro/00-intro.html#themen",
    "href": "00-intro/00-intro.html#themen",
    "title": "Pragmatisch, praktisch, gut",
    "section": "Themen",
    "text": "Themen\n\nAusgangslage\nPädagogische Transformationen\nPersonen\nKernkonzepte\n\n\n\nZunächst die individuelle Ausgangslage und die Ausgangslage der Disziplin in Europa und Amerika thematisieren.\nDanach die entscheidenden theoretischen Umwälzungen im 19. Jahrhundert in den Blick nehmen.\nEs folgt ein digital aufbereiteter Blick auf wichtige Personen in Form von Slides.\nAbschließend werden im Sinn einer pragmatischen Pädagogik Kernkonzepte kritisch diskutiert."
  },
  {
    "objectID": "00-intro/00-intro.html#lego",
    "href": "00-intro/00-intro.html#lego",
    "title": "Pragmatisch, praktisch, gut",
    "section": "LEGO",
    "text": "LEGO"
  },
  {
    "objectID": "00-intro/00-intro.html#lego-1",
    "href": "00-intro/00-intro.html#lego-1",
    "title": "Pragmatisch, praktisch, gut",
    "section": "LEGO",
    "text": "LEGO"
  },
  {
    "objectID": "00-intro/00-intro.html#mindmap",
    "href": "00-intro/00-intro.html#mindmap",
    "title": "Vergessene Zusammenhänge",
    "section": "Mindmap",
    "text": "Mindmap\n\n\n    \nhttps://link.inventionate.de/GG2Wuu"
  },
  {
    "objectID": "00-intro/00-intro.html#agenda",
    "href": "00-intro/00-intro.html#agenda",
    "title": "Vergessene Zusammenhänge",
    "section": "Agenda",
    "text": "Agenda\n\nAusgangslage\nPädagogische Transformationen\nPersonen\nKernkonzepte\n\n\n\nZunächst die individuelle Ausgangslage und die Ausgangslage der Disziplin in Europa und Amerika thematisieren.\nDanach die entscheidenden theoretischen Umwälzungen im 19. Jahrhundert in den Blick nehmen.\nEs folgt ein digital aufbereiteter Blick auf wichtige Personen in Form von Slides.\nAbschließend werden im Sinn einer pragmatischen Pädagogik Kernkonzepte kritisch diskutiert."
  },
  {
    "objectID": "00-intro/00-intro.html#webstory",
    "href": "00-intro/00-intro.html#webstory",
    "title": "Pragmatisch, praktisch, gut",
    "section": "Webstory",
    "text": "Webstory"
  },
  {
    "objectID": "00-intro/00-intro.html#visual-web-story",
    "href": "00-intro/00-intro.html#visual-web-story",
    "title": "Vergessene Zusammenhänge",
    "section": "Visual Web Story",
    "text": "Visual Web Story\n\nAuf Shorthand hinweisen."
  },
  {
    "objectID": "00-intro/00-intro.html#shorthand",
    "href": "00-intro/00-intro.html#shorthand",
    "title": "Pragmatisch, praktisch, gut",
    "section": "Shorthand",
    "text": "Shorthand"
  },
  {
    "objectID": "00-intro/00-intro.html#modulleistung-1",
    "href": "00-intro/00-intro.html#modulleistung-1",
    "title": "Vergessene Zusammenhänge",
    "section": "Modulleistung",
    "text": "Modulleistung\nSchriftliche Ausarbeitung der Visual Web Story."
  },
  {
    "objectID": "00-intro/00-intro.html#das-buch-als-roter-faden",
    "href": "00-intro/00-intro.html#das-buch-als-roter-faden",
    "title": "Vergessene Zusammenhänge",
    "section": "Das Buch als roter Faden",
    "text": "Das Buch als roter Faden"
  },
  {
    "objectID": "00-intro/00-intro.html#ergänzungstexte",
    "href": "00-intro/00-intro.html#ergänzungstexte",
    "title": "Vergessene Zusammenhänge",
    "section": "Ergänzungstexte",
    "text": "Ergänzungstexte"
  },
  {
    "objectID": "00-intro/00-intro.html#lektorewochen",
    "href": "00-intro/00-intro.html#lektorewochen",
    "title": "Vergessene Zusammenhänge",
    "section": "Lektorewochen",
    "text": "Lektorewochen\n\n\nZunächst die individuelle Ausgangslage und die Ausgangslage der Disziplin in Europa und Amerika thematisieren.\nDanach die entscheidenden theoretischen Umwälzungen im 19. Jahrhundert in den Blick nehmen.\nEs folgt ein digital aufbereiteter Blick auf wichtige Personen in Form von Slides.\nAbschließend werden im Sinn einer pragmatischen Pädagogik Kernkonzepte kritisch diskutiert."
  },
  {
    "objectID": "00-intro/00-intro.html#aus-dem-inhalt",
    "href": "00-intro/00-intro.html#aus-dem-inhalt",
    "title": "Vergessene Zusammenhänge",
    "section": "»Aus dem Inhalt«",
    "text": "»Aus dem Inhalt«\n\nPräsentation\nRepräsentation\nBildsamkeit\nSelbsttätigkeit\n\n\nQuelle: Klaus Mollenhauer (2008)"
  },
  {
    "objectID": "00-intro/00-intro.html#aus-dem-inhalt-.text-center-.-center",
    "href": "00-intro/00-intro.html#aus-dem-inhalt-.text-center-.-center",
    "title": "Vergessene Zusammenhänge",
    "section": "»Aus dem Inhalt« {.text-center . center}",
    "text": "»Aus dem Inhalt« {.text-center . center}\n\nPräsentation\nRepräsentation\nBildsamkeit\nSelbsttätigkeit"
  },
  {
    "objectID": "00-intro/00-intro.html#ergänzungstexe",
    "href": "00-intro/00-intro.html#ergänzungstexe",
    "title": "Vergessene Zusammenhänge",
    "section": "Ergänzungstexe",
    "text": "Ergänzungstexe\n\nOptional\nPro Themenblock ein Text"
  },
  {
    "objectID": "00-intro/00-intro.html#vertiefungswochen",
    "href": "00-intro/00-intro.html#vertiefungswochen",
    "title": "Vergessene Zusammenhänge",
    "section": "Vertiefungswochen",
    "text": "Vertiefungswochen\n\nNach der Pfingstwoche entfallen zwei Termine\nVertiefung des Konzepts der Bildsamkeit\nZwei aktuelle Texte:\n\nAnhalt (2012)\nDörpinghaus et al. (2012)"
  },
  {
    "objectID": "00-intro/00-intro.html#modulleistung",
    "href": "00-intro/00-intro.html#modulleistung",
    "title": "Vergessene Zusammenhänge",
    "section": "Modulleistung",
    "text": "Modulleistung\nSchriftliche Ausarbeitung der Visual Web Story."
  },
  {
    "objectID": "00-intro/00-intro.html#prüfung-1",
    "href": "00-intro/00-intro.html#prüfung-1",
    "title": "Vergessene Zusammenhänge",
    "section": "Prüfung",
    "text": "Prüfung\n\nGemeinsam mit Kolleg:in der Schulpäd.\nZum Ende des Semesters\n15 Minuten mündliche Prüfung Teil A\n15 Minuten mündliche Prüfung Teil B"
  },
  {
    "objectID": "00-intro/00-intro.html#prüfung-2",
    "href": "00-intro/00-intro.html#prüfung-2",
    "title": "Vergessene Zusammenhänge",
    "section": "Prüfung",
    "text": "Prüfung\n\nBei aktiver Mitarbeit im Semester: 2,0 sicher(für Teil A)\nDas Prüfungsgespräch verbessert oder verschlechtert die Note.\nBei mangelhalfter Mitarbeit:Die Prüfung entscheidet über das Bestehen (max. 3,0)"
  }
]